<svg xmlns="http://www.w3.org/2000/svg" width="130" height="253.84" viewBox="0 0 130 253.84">
  <g id="logo" transform="translate(-10 -25)">
    <path id="Path_523" data-name="Path 523" d="M0,0H130V130H0Z" transform="translate(10 25)" fill="#fff"/>
    <g id="logo-hd" transform="translate(29.139 39.141)">
      <path id="Union_6" data-name="Union 6" d="M10940.859,22709.859a35,35,0,1,1,35,35A35,35,0,0,1,10940.859,22709.859Zm2.643,0a32.358,32.358,0,1,0,32.357-32.355A32.356,32.356,0,0,0,10943.5,22709.859Zm14.021,20.553c-2.859-2.861-2.41-7.941,1-11.346a11.915,11.915,0,0,1,1.593-1.33,20.2,20.2,0,0,1-5.972-3.67c-5.118-4.611-6.494-11.424-3.07-15.23s10.352-3.15,15.47,1.455a20.292,20.292,0,0,1,3.7,4.529,15.777,15.777,0,0,0-1.6-1.654c-4.177-3.766-9.707-4.439-12.35-1.508s-1.39,8.359,2.794,12.125a17.973,17.973,0,0,0,3.584,2.482,17.633,17.633,0,0,1,4.458-1.4c2.347-.4,3.83.391,3.967,1.354.124.84-.318,2.137-2.83,2.584a13.982,13.982,0,0,1-5.045-.143,9.6,9.6,0,0,0-.92.8c-2.664,2.672-3.1,6.557-.963,8.693s6.023,1.7,8.7-.963a10.9,10.9,0,0,0,1.671-2.229,12.949,12.949,0,0,1-2.838,4.443,9.444,9.444,0,0,1-6.582,2.877A6.625,6.625,0,0,1,10957.523,22730.412Zm10.373-14.277a11.385,11.385,0,0,0-2.569,1.074,10.11,10.11,0,0,0,2.989.244c.8-.094,1.325-.441,1.281-.861-.027-.3-.406-.535-1.022-.535A3.176,3.176,0,0,0,10967.9,22716.135Zm14.956,13.27a12.838,12.838,0,0,1-2.83-4.436,10.361,10.361,0,0,0,1.672,2.229c2.664,2.664,6.552,3.1,8.687.957s1.7-6.023-.963-8.687a8.725,8.725,0,0,0-.919-.8,13.975,13.975,0,0,1-5.045.143c-2.512-.447-2.955-1.744-2.831-2.584.138-.963,1.621-1.75,3.967-1.354a17.527,17.527,0,0,1,4.459,1.4,18.187,18.187,0,0,0,3.59-2.482c4.186-3.766,5.43-9.193,2.787-12.125s-8.173-2.258-12.349,1.508a16.5,16.5,0,0,0-1.6,1.654,20.292,20.292,0,0,1,3.7-4.529c5.118-4.605,12.045-5.262,15.469-1.455s2.057,10.619-3.062,15.23a20.468,20.468,0,0,1-5.979,3.67,11.952,11.952,0,0,1,1.593,1.324c3.408,3.41,3.858,8.49,1,11.352a6.6,6.6,0,0,1-4.752,1.875A9.471,9.471,0,0,1,10982.853,22729.4Zm-.73-12.812c-.044.414.477.768,1.288.861a10.143,10.143,0,0,0,2.989-.244,11.806,11.806,0,0,0-2.57-1.082,3.213,3.213,0,0,0-.67-.078C10982.539,22716.049,10982.154,22716.287,10982.122,22716.592Zm-6.588,15.338c-.021-.2-1.687-20.42-1.687-27.693v-6.676a2.012,2.012,0,0,1,4.024,0v6.676c0,8.643-1.665,27.506-1.679,27.693a.341.341,0,0,1-.334.307A.327.327,0,0,1,10975.534,22731.93Zm-.348-32.684v4.041a.673.673,0,1,0,1.346,0v-4.041a.673.673,0,0,0-1.346,0Zm12.364-7.578-2.715,1.977s.55-1.687,1.036-3.2c-1.282-.926-2.716-1.971-2.716-1.971h3.359c.492-1.5,1.035-3.191,1.035-3.191l1.035,3.191h3.359l-2.716,1.971,1.035,3.2Zm-23.382,0-2.714,1.977s.55-1.687,1.034-3.2c-1.281-.926-2.715-1.971-2.715-1.971h3.359c.484-1.5,1.035-3.191,1.035-3.191l1.034,3.191h3.36l-2.716,1.971,1.036,3.2Zm11.69-2.643-2.715,1.979s.55-1.687,1.036-3.193l-2.715-1.977h3.359c.492-1.506,1.034-3.193,1.034-3.193l1.043,3.193h3.352l-2.715,1.977,1.034,3.193S10977.142,22689.959,10975.859,22689.025Z" transform="translate(-10929.997 -22664.002)" fill="#d88b83" stroke="rgba(0,0,0,0)" stroke-miterlimit="10" stroke-width="1"/>
      <path id="Union_7" data-name="Union 7" d="M11002.84,22686.033a.1.1,0,0,1-.008-.068c.008-.027.031-.041.051-.057l.875-.441a.089.089,0,0,1,.123.037,3.273,3.273,0,0,0,2.861,1.156c2.037,0,2.955-.766,2.955-1.518,0-.838-1.033-1.17-3.057-1.531-1.48-.26-3.707-.65-3.707-2.486,0-1.51,1.5-2.49,3.809-2.49a5.864,5.864,0,0,1,2.672.627,2.914,2.914,0,0,1,1.105.961.079.079,0,0,1,.008.072.115.115,0,0,1-.043.059l-.881.447a.1.1,0,0,1-.115-.027,3.918,3.918,0,0,0-2.746-.977c-1.828,0-2.645.672-2.645,1.328,0,.717,1.012,1.033,2.746,1.338,1.7.3,4.016.715,4.016,2.68,0,1.627-1.619,2.682-4.117,2.682A4.4,4.4,0,0,1,11002.84,22686.033Zm-3.172,1.791a.1.1,0,0,1-.094-.094v-1.453a4.591,4.591,0,1,1,0-6.1v-1.445a.094.094,0,0,1,.094-.094h.984a.092.092,0,0,1,.092.094v9a.1.1,0,0,1-.092.094Zm-6.949-4.6a3.428,3.428,0,1,0,3.432-3.432A3.435,3.435,0,0,0,10992.719,22683.229Zm-11.416,0a4.594,4.594,0,0,1,8.648-2.16.1.1,0,0,1,.008.072.113.113,0,0,1-.043.051l-.883.447a.1.1,0,0,1-.123-.035,3.431,3.431,0,1,0,0,3.252.092.092,0,0,1,.123-.037l.883.441a.181.181,0,0,1,.043.057.1.1,0,0,1-.008.072,4.593,4.593,0,0,1-8.648-2.16Zm-11.1,0a4.591,4.591,0,1,1,9.182,0,3.649,3.649,0,0,1-.029.5.094.094,0,0,1-.086.086h-7.854a3.427,3.427,0,0,0,6.395,1.045.089.089,0,0,1,.123-.041l.873.441a.111.111,0,0,1,.043.057.081.081,0,0,1-.008.072,4.587,4.587,0,0,1-8.639-2.16Zm1.213-.584h6.756a3.427,3.427,0,0,0-6.756,0Zm-4.687,5.18a.1.1,0,0,1-.1-.094v-7.855a.092.092,0,0,1,.1-.086h.98a.083.083,0,0,1,.086.086v7.855a.09.09,0,0,1-.086.094Zm-3.865,0a.1.1,0,0,1-.1-.094v-4.742a3.193,3.193,0,0,0-6.387,0v4.742a.1.1,0,0,1-.094.094h-.982a.09.09,0,0,1-.086-.094v-12.781a.084.084,0,0,1,.086-.088h.982a.09.09,0,0,1,.094.088v5.078a4.356,4.356,0,0,1,7.549,2.961v4.742a.09.09,0,0,1-.086.094Zm-22.008-6.48a6.479,6.479,0,0,1,12.217-3.014.068.068,0,0,1,.008.066.078.078,0,0,1-.043.057l-.875.441a.087.087,0,0,1-.123-.037,5.32,5.32,0,1,0,0,4.965.09.09,0,0,1,.123-.037l.875.441a.091.091,0,0,1,.043.057.081.081,0,0,1-.008.072,6.479,6.479,0,0,1-12.217-3.012Zm25.416-3.7a.943.943,0,1,1,.939.947A.947.947,0,0,1,10966.275,22677.643Z" transform="translate(-10929.997 -22588.592)" fill="#697c8e" stroke="rgba(0,0,0,0)" stroke-miterlimit="10" stroke-width="1"/>
    </g>
    <g id="txt" transform="translate(-0.5 -41)">
      <path id="Path_524" data-name="Path 524" d="M-3.192.276a4.426,4.426,0,0,0-.2-.45q-.132-.258-.288-.5a2.237,2.237,0,0,0-.288-.378A5.465,5.465,0,0,0-1.458-2.2,3.179,3.179,0,0,0-.444-4.308q-1.044.012-1.992.036L-4.05-4.23q-.666.018-.87.042l-.1-1.38q.132.012.558.018t1.062,0q.636-.006,1.4-.018l1.584-.024V-7.248a24.124,24.124,0,0,1-2.652.24,3.174,3.174,0,0,0-.1-.45q-.072-.258-.162-.51a2.436,2.436,0,0,0-.174-.4q.78.012,1.656-.06t1.752-.2q.876-.132,1.656-.33A9.862,9.862,0,0,0,2.928-9.4l.564,1.224a10.125,10.125,0,0,1-1.1.36q-.618.168-1.3.312v1.872q.936-.024,1.752-.048t1.38-.054q.564-.03.72-.054v1.44q-.18-.012-.75-.012T2.808-4.35q-.816.006-1.74.018A4.615,4.615,0,0,1-.144-1.4,6.635,6.635,0,0,1-3.192.276Zm-.624,27.856a3.3,3.3,0,0,0-.438-.624,2.963,2.963,0,0,0-.594-.552,6.6,6.6,0,0,0,2.514-1.722,6.9,6.9,0,0,0,1.458-2.8l-3.24.1-.108-1.4q.156.012.684.006l1.3-.018q.768-.012,1.632-.036a14.713,14.713,0,0,0,.144-2.448l1.488.012q.012.636-.024,1.236T.888,21.04q.84-.024,1.572-.048t1.23-.048q.5-.024.63-.036,0,.5-.06,1.212T4.1,23.578q-.1.75-.2,1.41t-.216,1.068a3.314,3.314,0,0,1-.546,1.26,1.68,1.68,0,0,1-.948.582,6.635,6.635,0,0,1-1.614.138,6.229,6.229,0,0,0-.186-.744,2.769,2.769,0,0,0-.342-.756,10.1,10.1,0,0,0,1.2-.036,1.183,1.183,0,0,0,.654-.24,1.227,1.227,0,0,0,.342-.588,7.934,7.934,0,0,0,.228-.948q.108-.576.192-1.218t.12-1.206l-2.136.072a9.042,9.042,0,0,1-1.626,3.48A8.171,8.171,0,0,1-3.816,28.132Zm-.072,13.7q-.156-.264-.414-.636a2.86,2.86,0,0,0-.522-.588,12.5,12.5,0,0,0,1.8-.984A14.211,14.211,0,0,0-1.3,38.3a14.473,14.473,0,0,0,1.5-1.56,10.835,10.835,0,0,0,1.146-1.674q-.588.036-1.29.084t-1.392.09q-.69.042-1.248.084l-.858.066-.168-1.524q.3,0,.9-.012t1.344-.042q.744-.03,1.482-.066t1.332-.09q.594-.054.882-.1l.972.624a9.918,9.918,0,0,1-.744,1.65A12.766,12.766,0,0,1,1.524,37.38q.42.324.894.732t.93.84q.456.432.84.828t.636.708a4.82,4.82,0,0,0-.636.5q-.336.306-.588.582a9.385,9.385,0,0,0-.588-.738q-.36-.414-.774-.84T1.4,39.162q-.42-.4-.792-.714a15.935,15.935,0,0,1-2.16,1.932A15.765,15.765,0,0,1-3.888,41.832Zm.12,15.056v-4.44q-.24.456-.486.87a7.362,7.362,0,0,1-.486.726,3.9,3.9,0,0,0-.54-.378q-.348-.21-.6-.33a7.334,7.334,0,0,0,.642-.87q.318-.5.6-1.044t.5-1.08a6.936,6.936,0,0,0,.33-.966h-1.7V48.128h1.74V46h1.344v2.124H-1.08v1.056a10.334,10.334,0,0,0,.558-1.26A6.436,6.436,0,0,0-.18,46.676l1.272.312q-.048.264-.126.546t-.174.558h.684v-2.16H2.82v2.16H5.064V49.3H2.82v1.3H5.472v1.224H3.108A9.515,9.515,0,0,0,3.87,52.85a10.61,10.61,0,0,0,.978,1.014A9.7,9.7,0,0,0,5.9,54.7a2.932,2.932,0,0,0-.54.534,5.246,5.246,0,0,0-.432.606,9.667,9.667,0,0,1-1.1-1.086,14.249,14.249,0,0,1-1.008-1.29v3.4H1.476v-3.4a13.921,13.921,0,0,1-1.182,1.4,10.993,10.993,0,0,1-1.314,1.17,5.884,5.884,0,0,0-.432-.516,3.67,3.67,0,0,0-.5-.468,9.557,9.557,0,0,0,1.1-.888,13.442,13.442,0,0,0,1.092-1.14,11.814,11.814,0,0,0,.906-1.2H-.948q.12.12.234.222t.2.174q-.12.1-.318.276t-.384.366a3.969,3.969,0,0,0-.282.306q-.18-.192-.426-.492t-.5-.636v4.848Zm2.784-5.1V50.6h2.46V49.3H.312a7.4,7.4,0,0,1-.6,1.116,3.987,3.987,0,0,0-.6-.324,3.624,3.624,0,0,0-.624-.228,2.754,2.754,0,0,0,.324-.492H-2.424v.72q.24.336.648.822T-.984,51.788Zm4.632,18.92A4.06,4.06,0,0,1,2.2,69.484,8.269,8.269,0,0,1,.99,67.144,17.061,17.061,0,0,1,.2,63.592H-5.352V62.236H.072Q0,61.156,0,59.932H1.452q-.036,1.224.036,2.3H3.276a7.58,7.58,0,0,0-.66-.738,5.541,5.541,0,0,0-.684-.582l.936-.9a5.484,5.484,0,0,1,.576.462q.312.282.594.57a6.1,6.1,0,0,1,.45.5,5.033,5.033,0,0,0-.414.306q-.246.2-.438.378H5.352v1.356H1.62a12.5,12.5,0,0,0,.912,3.5,4.667,4.667,0,0,0,1.452,1.968q.132-.372.24-.78T4.38,67.6a4.034,4.034,0,0,0,.378.2,5.273,5.273,0,0,0,.51.216q.264.1.42.144a7.923,7.923,0,0,1-.2.822q-.132.438-.282.822a4.22,4.22,0,0,1-.294.624.764.764,0,0,1-.522.4A1.185,1.185,0,0,1,3.648,70.708ZM-5.1,70.564l-.276-1.344q.372-.036.954-.108t1.242-.168V66.316H-5.112V65.032h5.2v1.284H-1.644V68.7q.708-.12,1.32-.234t.984-.2v1.284q-.408.108-1,.228t-1.254.24q-.666.12-1.326.228t-1.23.192Q-4.716,70.528-5.1,70.564ZM3.636,85.02a5.723,5.723,0,0,0-.378-.612q-.234-.336-.522-.684-.552.1-1.272.2t-1.524.216q-.8.108-1.59.2t-1.464.156q-.678.066-1.158.1l-.276-1.428q.264,0,.654-.018t.846-.054a10.609,10.609,0,0,0,.57-1q.294-.576.522-1.092H-4.908V79.728H4.92v1.284H2.028a8.958,8.958,0,0,1,.72.636q.4.384.8.822t.75.858a8.984,8.984,0,0,1,.546.732q-.156.1-.4.276t-.468.366A3.321,3.321,0,0,0,3.636,85.02ZM-4.98,79a3.49,3.49,0,0,0-.24-.4q-.156-.228-.336-.444a2.836,2.836,0,0,0-.336-.348,10.543,10.543,0,0,0,1.53-.75,15.244,15.244,0,0,0,1.518-1.02A12.487,12.487,0,0,0-1.536,74.9a6.073,6.073,0,0,0,.888-1.1l1.356.192a7.347,7.347,0,0,0,.984,1.056,12.338,12.338,0,0,0,1.314,1.026,15.7,15.7,0,0,0,1.458.882,11.561,11.561,0,0,0,1.428.648,2.739,2.739,0,0,0-.384.39q-.2.246-.378.5a3.107,3.107,0,0,0-.258.432q-.468-.2-.966-.48t-1-.6v1.02h-5.8V77.808q-.552.372-1.092.678T-4.98,79Zm2.424-1.428H2.508a14.746,14.746,0,0,1-1.392-1.086A8.617,8.617,0,0,1,0,75.312a7.66,7.66,0,0,1-1.092,1.134A15.367,15.367,0,0,1-2.556,77.568Zm1.272,5.388q.8-.072,1.6-.162t1.44-.174A7.51,7.51,0,0,0,.84,81.8l.936-.792H-.276q-.2.468-.474.978T-1.284,82.956Zm.192,15.5v-1.38h2.7V92.9H-.42V91.52H1.608V87.98H3.06v3.54H5.148V92.9H3.06v4.176H5.472v1.38Zm-2.388.384v-4q-.336.3-.7.594T-4.92,96a4.4,4.4,0,0,0-.456-.564,5.8,5.8,0,0,0-.516-.5,8.973,8.973,0,0,0,1.014-.69,12.864,12.864,0,0,0,1.05-.912,12.053,12.053,0,0,0,.936-1.008,6.838,6.838,0,0,0,.672-.954H-5.256v-1.3h1.764v-2.1H-2.1v2.1H-1l.648.54a11.684,11.684,0,0,1-1.308,2.208q.312.216.678.45t.7.432q.336.2.552.318a3.511,3.511,0,0,0-.282.33q-.162.21-.312.432t-.234.378q-.324-.216-.732-.5l-.8-.558v4.74Z" transform="translate(75 221)" fill="#697c8e"/>
      <path id="Path_525" data-name="Path 525" d="M-4.9-3.78q.012-.168.012-.456v-.576q0-.288-.012-.456.228.012.81.024t1.392.024q.81.012,1.734.018T.888-5.2q.924,0,1.746-.012t1.422-.024q.6-.012.852-.036-.012.156-.018.444t0,.582q.006.294.006.45-.3-.012-.882-.024T2.658-3.84q-.774-.012-1.644-.012H-.744q-.888,0-1.692.012l-1.446.024Q-4.524-3.8-4.9-3.78Z" transform="translate(70.5 230) rotate(90)" fill="#697c8e"/>
    </g>
  </g>
</svg>
